new/dump.vcd
$date
	Tue May 14 23:22:05 2024
$end
$version
	QuestaSim Version 10.7c
$end
$timescale
	1ns
$end

$scope module async_fifo1_tb_uvm $end
$var parameter 32 ! DATA_SIZE $end
$var parameter 32 " ADDR_SIZE $end
$var parameter 32 # IDLE_R $end
$var parameter 32 $ IDLE_W $end

$scope module test_inst $end
$upscope $end

$scope module dut $end
$var parameter 32 % DATA_SIZE $end
$var parameter 32 & ADDR_SIZE $end
$var reg 8 ' wr_addr [7:0] $end
$var reg 8 ( rd_addr [7:0] $end
$var reg 9 ) wr_ptr [8:0] $end
$var reg 9 * rd_ptr [8:0] $end
$var reg 9 + wrq2_rdptr [8:0] $end
$var reg 9 , rdq2_wrptr [8:0] $end

$scope module sync_r2w $end
$var parameter 32 - ADDR_SIZE $end
$var wire 1 . wr_clk $end
$var wire 1 / wr_rstn $end
$var wire 1 0 rd_ptr [4] $end
$var wire 1 1 rd_ptr [3] $end
$var wire 1 2 rd_ptr [2] $end
$var wire 1 3 rd_ptr [1] $end
$var wire 1 4 rd_ptr [0] $end
$var reg 5 5 wrq2_rptr [4:0] $end
$var reg 5 6 wrq1_rptr [4:0] $end
$upscope $end

$scope module sync_w2r $end
$var parameter 32 7 ADDR_SIZE $end
$var wire 1 8 rd_clk $end
$var wire 1 9 rd_rstn $end
$var wire 1 : wr_ptr [4] $end
$var wire 1 ; wr_ptr [3] $end
$var wire 1 < wr_ptr [2] $end
$var wire 1 = wr_ptr [1] $end
$var wire 1 > wr_ptr [0] $end
$var reg 5 ? rdq2_wptr [4:0] $end
$var reg 5 @ rdq1_wptr [4:0] $end
$upscope $end

$scope module fifomem $end
$var parameter 32 A DATA_SIZE $end
$var parameter 32 B ADDR_SIZE $end
$var parameter 32 C DEPTH $end
$var wire 1 D wr_inc $end
$var wire 1 E wr_full $end
$var wire 1 F wr_clk $end
$var wire 1 G wr_addr [7] $end
$var wire 1 H wr_addr [6] $end
$var wire 1 I wr_addr [5] $end
$var wire 1 J wr_addr [4] $end
$var wire 1 K wr_addr [3] $end
$var wire 1 L wr_addr [2] $end
$var wire 1 M wr_addr [1] $end
$var wire 1 N wr_addr [0] $end
$var wire 1 O rd_addr [7] $end
$var wire 1 P rd_addr [6] $end
$var wire 1 Q rd_addr [5] $end
$var wire 1 R rd_addr [4] $end
$var wire 1 S rd_addr [3] $end
$var wire 1 T rd_addr [2] $end
$var wire 1 U rd_addr [1] $end
$var wire 1 V rd_addr [0] $end
$var wire 1 W wr_data [7] $end
$var wire 1 X wr_data [6] $end
$var wire 1 Y wr_data [5] $end
$var wire 1 Z wr_data [4] $end
$var wire 1 [ wr_data [3] $end
$var wire 1 \ wr_data [2] $end
$var wire 1 ] wr_data [1] $end
$var wire 1 ^ wr_data [0] $end
$var reg 8 _ rd_data [7:0] $end
$upscope $end

$scope module rdptr_empty $end
$var parameter 32 ` ADDR_SIZE $end
$var wire 1 a rd_inc $end
$var wire 1 b rd_clk $end
$var wire 1 c rd_rstn $end
$var wire 1 d rdq2_wptr [8] $end
$var wire 1 e rdq2_wptr [7] $end
$var wire 1 f rdq2_wptr [6] $end
$var wire 1 g rdq2_wptr [5] $end
$var wire 1 h rdq2_wptr [4] $end
$var wire 1 i rdq2_wptr [3] $end
$var wire 1 j rdq2_wptr [2] $end
$var wire 1 k rdq2_wptr [1] $end
$var wire 1 l rdq2_wptr [0] $end
$var reg 1 m rd_empty $end
$var reg 8 n rd_addr [7:0] $end
$var reg 9 o rd_ptr [8:0] $end
$var reg 9 p rd_bin [8:0] $end
$var reg 9 q rd_graynext [8:0] $end
$var reg 9 r rd_binnext [8:0] $end
$var wire 1 s rd_empty_val $end
$upscope $end

$scope module wrptr_full $end
$var parameter 32 t ADDR_SIZE $end
$var wire 1 u wr_inc $end
$var wire 1 v wr_clk $end
$var wire 1 w wr_rstn $end
$var wire 1 x wrq2_rptr [8] $end
$var wire 1 y wrq2_rptr [7] $end
$var wire 1 z wrq2_rptr [6] $end
$var wire 1 { wrq2_rptr [5] $end
$var wire 1 | wrq2_rptr [4] $end
$var wire 1 } wrq2_rptr [3] $end
$var wire 1 ~ wrq2_rptr [2] $end
$var wire 1 !! wrq2_rptr [1] $end
$var wire 1 "! wrq2_rptr [0] $end
$var reg 1 #! wr_full $end
$var reg 8 $! wr_addr [7:0] $end
$var reg 9 %! wr_ptr [8:0] $end
$var reg 9 &! wr_bin [8:0] $end
$var reg 9 '! wr_graynext [8:0] $end
$var reg 9 (! wr_binnext [8:0] $end
$var reg 1 )! wr_full_val $end
$upscope $end
$upscope $end
$upscope $end
$enddefinitions $end
#0
$dumpvars
b0 '
b0 (
b0 )
b0 *
b0 +
b0 ,
b0 5
b0 6
b0 ?
b0 @
bx _
1m
b0 n
b0 o
b0 p
b0 q
b0 r
0#!
b0 $!
b0 %!
b0 &!
b0 '!
b0 (!
0)!
b1000 !
b1000 "
b11 #
b1 $
b1000 %
b1000 &
b100 -
b100 7
b1000 A
b1000 B
b100000000 C
b1000 `
b1000 t
1s
0"!
0!!
0~
0}
0|
0{
0z
0y
0x
0l
0k
0j
0i
0h
0g
0f
0e
0d
0V
0U
0T
0S
0R
0Q
0P
0O
0N
0M
0L
0K
0J
0I
0H
0G
0>
0=
0<
0;
0:
04
03
02
01
00
0.
0/
08
09
0D
0E
0F
0^
0]
0\
0[
0Z
0Y
0X
0W
0a
0b
0c
0u
0v
0w
$end
#4
1v
1F
1.
#8
0v
0F
0.
#12
1v
1F
1.
1w
1/
1c
19
#16
0v
0F
0.
#20
1b
18
1v
1F
1.
1D
1u
b1 (!
b1 '!
#24
0v
0F
0.
#28
1v
1F
1.
1]
1Y
1X
b1 %!
b1 &!
b1 )
1>
b1 $!
b10 (!
b11 '!
b0 _
b1 '
1N
#32
0v
0F
0.
#36
1v
1F
1.
1^
1W
b11 %!
b10 &!
b11 )
1=
b10 $!
b11 (!
b10 '!
b10 '
0N
1M
#40
0b
08
0v
0F
0.
#44
1v
1F
1.
1\
1[
1Z
0W
b10 %!
b11 &!
b10 )
0>
b11 $!
b100 (!
b110 '!
b11 '
1N
#48
0v
0F
0.
#52
1v
1F
1.
0^
0\
0X
b110 %!
b100 &!
b110 )
1<
b100 $!
b101 (!
b111 '!
b100 '
0N
0M
1L
#56
0v
0F
0.
#60
1b
18
1v
1F
1.
1^
0]
0Z
0Y
1X
b111 %!
b101 &!
b110 @
b111 )
1>
b101 $!
b110 (!
b101 '!
b101 '
1N
#64
0v
0F
0.
#68
1v
1F
1.
0^
1]
1Y
b101 %!
b110 &!
b101 )
0=
b110 $!
b111 (!
b100 '!
b110 '
0N
1M
#72
0v
0F
0.
#76
1v
1F
1.
0]
1\
1Z
b100 %!
b111 &!
b100 )
0>
b111 $!
b1000 (!
b1100 '!
b111 '
1N
#80
0b
08
0v
0F
0.
#84
1v
1F
1.
0\
0[
0Z
0Y
b1100 %!
b1000 &!
b1100 )
1;
b1000 $!
b1001 (!
b1101 '!
b1000 '
0N
0M
0L
1K
#88
0v
0F
0.
#92
1v
1F
1.
1[
0X
b1101 %!
b1001 &!
b1101 )
1>
b1001 $!
b1010 (!
b1111 '!
b1001 '
1N
#96
0v
0F
0.
#100
1b
18
1v
1F
1.
1^
1]
1\
b1111 %!
b1010 &!
b1101 @
b110 ?
b110 ,
b1111 )
1=
1k
1j
0s
b1010 $!
b1011 (!
b1110 '!
b1010 '
0N
1M
#104
0v
0F
0.
#108
1v
1F
1.
0\
1Y
1X
b1110 %!
b1011 &!
b1110 )
0>
b1011 $!
b1100 (!
b1010 '!
b1011 '
1N
#112
0v
0F
0.
#116
1v
1F
1.
0^
0]
1\
0X
b1010 %!
b1100 &!
b1010 )
0<
b1100 $!
b1101 (!
b1011 '!
b1100 '
0N
0M
1L
#120
0b
08
0v
0F
0.
#124
1v
1F
1.
1^
0\
1X
b1011 %!
b1101 &!
b1011 )
1>
b1101 $!
b1110 (!
b1001 '!
b1101 '
1N
#128
0v
0F
0.
#132
1v
1F
1.
0^
1\
0[
0Y
1W
b1001 %!
b1110 &!
b1001 )
0=
b1110 $!
b1111 (!
b1000 '!
b1110 '
0N
1M
#136
0v
0F
0.
#140
1b
18
1v
1F
1.
1^
0\
1[
1Z
0X
0W
b1000 %!
b1111 &!
b1001 @
b1101 ?
0m
b1101 ,
b1000 )
0>
1l
0k
1i
b1111 $!
b10000 (!
b11000 '!
b1111 '
1N
#144
0v
0F
0.
#148
1v
1F
1.
1]
0[
1Y
b11000 %!
b10000 &!
b11000 )
1:
b10000 $!
b10001 (!
b11001 '!
b10000 '
0N
0M
0L
0K
1J
#152
0v
0F
0.
#156
1v
1F
1.
0]
1[
0Y
1X
1W
b11001 %!
b10001 &!
b11001 )
1>
b10001 $!
b10010 (!
b11011 '!
b10001 '
1N
#160
0b
08
0v
0F
0.
#164
1v
1F
1.
1\
0[
0Z
1Y
0X
b11011 %!
b10010 &!
b11011 )
1=
b10010 $!
b10011 (!
b11010 '!
b10010 '
0N
1M
#168
0v
0F
0.
#172
1v
1F
1.
0^
1]
1Z
1X
b11010 %!
b10011 &!
b11010 )
0>
b10011 $!
b10100 (!
b11110 '!
b10011 '
1N
#176
0v
0F
0.
#180
1b
18
1v
1F
1.
0]
0\
1[
0Z
0W
1a
b1 r
b1 q
b11110 %!
b10100 &!
b11010 @
b1001 ?
b1001 ,
b11110 )
1<
0j
b10100 $!
b10101 (!
b11111 '!
b10100 '
0N
0M
1L
#184
0v
0F
0.
#188
1v
1F
1.
1^
1\
1Z
1W
b11111 %!
b10101 &!
b11111 )
1>
b10101 $!
b10110 (!
b11101 '!
b10101 '
1N
#192
0v
0F
0.
#196
1v
1F
1.
0Y
0X
b11101 %!
b10110 &!
b11101 )
0=
b10110 $!
b10111 (!
b11100 '!
b10110 '
0N
1M
#200
0b
08
0v
0F
0.
#204
1v
1F
1.
1]
0\
0Z
0W
b11100 %!
b10111 &!
b11100 )
0>
b10111 $!
b11000 (!
b10100 '!
b10111 '
1N
#208
0v
0F
0.
#212
1v
1F
1.
0^
0]
1\
0[
1Y
1X
b10100 %!
b11000 &!
b10100 )
0;
b11000 $!
b11001 (!
b10101 '!
b11000 '
0N
0M
0L
1K
#216
0v
0F
0.
#220
1b
18
1v
1F
1.
0\
1Z
0Y
0X
1W
0a
b0 r
b0 q
b10101 %!
b11001 &!
b10100 @
b11010 ?
b1 o
b1 p
b1 *
b11010 ,
b10101 )
1>
0l
1k
1h
14
b1 n
b1 r
b1 q
b11001 $!
b11010 (!
b10111 '!
b11001 '
b1 (
1N
1V
b1100010 _
#224
0v
0F
0.
#228
1v
1F
1.
1]
1\
1[
1Y
0W
b1 6
b10111 %!
b11010 &!
b10111 )
1=
b11010 $!
b11011 (!
b10110 '!
b11010 '
0N
1M
#232
0v
0F
0.
#236
1v
1F
1.
1^
0]
0\
1X
1W
b1 5
b10110 %!
b11011 &!
b10110 )
b1 +
1"!
0>
b11011 $!
b11100 (!
b10010 '!
b11011 '
1N
#240
0b
08
0v
0F
0.
#244
1v
1F
1.
0^
b10010 %!
b11100 &!
b10010 )
0<
b11100 $!
b11101 (!
b10011 '!
b11100 '
0N
0M
1L
#248
0v
0F
0.
#252
1v
1F
1.
1^
1]
0Y
0W
b10011 %!
b11101 &!
b10011 )
1>
b11101 $!
b11110 (!
b10001 '!
b11101 '
1N
#256
0v
0F
0.
#260
1b
18
1v
1F
1.
0^
1\
0Z
0X
b10001 %!
b11110 &!
b10011 @
b10100 ?
b10100 ,
b10001 )
0=
0k
1j
0i
b11110 $!
b11111 (!
b10000 '!
b11110 '
0N
1M
#264
0v
0F
0.
#268
1v
1F
1.
1^
1Z
1X
b10000 %!
b11111 &!
b10000 )
0>
b11111 $!
b100000 (!
b110000 '!
b11111 '
1N
#272
0v
0F
0.
#276
1v
1F
1.
0]
0Z
1Y
b110000 %!
b100000 &!
b110000 )
b100000 $!
b100001 (!
b110001 '!
b100000 '
0N
0M
0L
0K
0J
1I
#280
0b
08
0v
0F
0.
#284
1v
1F
1.
1]
1W
b110001 %!
b100001 &!
b110001 )
1>
b100001 $!
b100010 (!
b110011 '!
b100001 '
1N
#288
0v
0F
0.
#292
1v
1F
1.
0]
0\
0[
1Z
0Y
0W
b110011 %!
b100010 &!
b110011 )
1=
b100010 $!
b100011 (!
b110010 '!
b100010 '
0N
1M
#296
0v
0F
0.
#300
1b
18
1v
1F
1.
1]
1Y
1a
b10 r
b11 q
b110010 %!
b100011 &!
b10011 ?
b10011 ,
b110010 )
0>
1l
1k
0j
b100011 $!
b100100 (!
b110110 '!
b100011 '
1N
#304
0v
0F
0.
#308
1v
1F
1.
0^
0]
0Z
0Y
1W
b110110 %!
b100100 &!
b110110 )
1<
b100100 $!
b100101 (!
b110111 '!
b100100 '
0N
0M
1L
#312
0v
0F
0.
#316
1v
1F
1.
1^
1]
1\
1Z
b110111 %!
b100101 &!
b110111 )
1>
b100101 $!
b100110 (!
b110101 '!
b100101 '
1N
#320
0b
08
0v
0F
0.
#324
1v
1F
1.
0]
0\
0X
b110101 %!
b100110 &!
b110101 )
0=
b100110 $!
b100111 (!
b110100 '!
b100110 '
0N
1M
#328
0v
0F
0.
#332
1v
1F
1.
1[
0Z
1Y
1X
0W
b110100 %!
b100111 &!
b110100 )
0>
b100111 $!
b101000 (!
b111100 '!
b100111 '
1N
#336
0v
0F
0.
#340
1b
18
1v
1F
1.
1]
1\
1Z
0X
0a
b1 r
b1 q
b111100 %!
b101000 &!
b10100 @
b11 o
b10 p
b11 *
b111100 )
1;
13
b10 n
b10 r
b11 q
b101000 $!
b101001 (!
b111101 '!
b101000 '
b10 (
0N
0M
0L
1K
0V
1U
b11100011 _
#344
0v
0F
0.
#348
1v
1F
1.
0^
0\
0Z
0Y
1W
b11 6
b111101 %!
b101001 &!
b111101 )
1>
b101001 $!
b101010 (!
b111111 '!
b101001 '
1N
#352
0v
0F
0.
#356
1v
1F
1.
1^
1\
1X
0W
b11 5
b111111 %!
b101010 &!
b111111 )
b11 +
1!!
1=
b101010 $!
b101011 (!
b111110 '!
b101010 '
0N
1M
#360
0b
08
0v
0F
0.
#364
1v
1F
1.
0\
1Y
1W
b111110 %!
b101011 &!
b111110 )
0>
b101011 $!
b101100 (!
b111010 '!
b101011 '
1N
#368
0v
0F
0.
#372
1v
1F
1.
0[
1Z
0Y
0W
b111010 %!
b101100 &!
b111010 )
0<
b101100 $!
b101101 (!
b111011 '!
b101100 '
0N
0M
1L
#376
0v
0F
0.
#380
1b
18
1v
1F
1.
0]
1\
1[
0Z
1Y
1W
b111011 %!
b101101 &!
b11010 @
b10100 ?
b10100 ,
b111011 )
1>
0l
0k
1j
b101101 $!
b101110 (!
b111001 '!
b101101 '
1N
#384
0v
0F
0.
#388
1v
1F
1.
0^
1]
0\
0[
b111001 %!
b101110 &!
b111001 )
0=
b101110 $!
b101111 (!
b111000 '!
b101110 '
0N
1M
#392
0v
0F
0.
#396
1v
1F
1.
1^
1\
1[
1Z
0W
b111000 %!
b101111 &!
b111000 )
0>
b101111 $!
b110000 (!
b101000 '!
b101111 '
1N
#400
0b
08
0v
0F
0.
#404
1v
1F
1.
0^
1W
b101000 %!
b110000 &!
b101000 )
0:
b110000 $!
b110001 (!
b101001 '!
b110000 '
0N
0M
0L
0K
1J
#408
0v
0F
0.
#412
1v
1F
1.
0]
0\
0[
0Z
0X
b101001 %!
b110001 &!
b101001 )
1>
b110001 $!
b110010 (!
b101011 '!
b110001 '
1N
#416
0v
0F
0.
#420
1b
18
1v
1F
1.
1^
1]
1\
1Z
0Y
1X
0W
1a
b11 r
b10 q
b101011 %!
b110010 &!
b1001 @
b11010 ?
b11010 ,
b101011 )
1=
1k
0j
1i
b110010 $!
b110011 (!
b101010 '!
b110010 '
0N
1M
#424
0v
0F
0.
#428
1v
1F
1.
1[
0Z
b101010 %!
b110011 &!
b101010 )
0>
b110011 $!
b110100 (!
b101110 '!
b110011 '
1N
#432
0v
0F
0.
#436
1v
1F
1.
0^
0\
1Z
0X
1W
b101110 %!
b110100 &!
b101110 )
1<
b110100 $!
b110101 (!
b101111 '!
b110100 '
0N
0M
1L
#440
0b
08
0v
0F
0.
#444
1v
1F
1.
0[
0Z
1Y
1X
0W
b101111 %!
b110101 &!
b101111 )
1>
b110101 $!
b110110 (!
b101101 '!
b110101 '
1N
#448
0v
0F
0.
#452
1v
1F
1.
1^
1\
1[
1Z
0X
1W
b101101 %!
b110110 &!
b101101 )
0=
b110110 $!
b110111 (!
b101100 '!
b110110 '
0N
1M
#456
0v
0F
0.
#460
1b
18
1v
1F
1.
0[
0Y
1X
0W
0a
b10 r
b11 q
b101100 %!
b110111 &!
b1101 @
b1001 ?
b10 o
b11 p
b10 *
b1001 ,
b101100 )
0>
1l
0k
0h
04
b11 n
b11 r
b10 q
b110111 $!
b111000 (!
b100100 '!
b110111 '
b11 (
1N
1V
b1111111 _
#464
0v
0F
0.
#468
1v
1F
1.
0^
0]
1[
b10 6
b100100 %!
b111000 &!
b100100 )
0;
b111000 $!
b111001 (!
b100101 '!
b111000 '
0N
0M
0L
1K
#472
0v
0F
0.
#476
1v
1F
1.
1]
0[
0Z
0X
1W
b10 5
b100101 %!
b111001 &!
b100101 )
b10 +
0"!
1>
b111001 $!
b111010 (!
b100111 '!
b111001 '
1N
#480
0b
08
0v
0F
0.
#484
1v
1F
1.
1[
1Y
1X
0W
b100111 %!
b111010 &!
b100111 )
1=
b111010 $!
b111011 (!
b100110 '!
b111010 '
0N
1M
#488
0v
0F
0.
#492
1v
1F
1.
1^
0\
0[
0Y
0X
b100110 %!
b111011 &!
b100110 )
0>
b111011 $!
b111100 (!
b100010 '!
b111011 '
1N
#496
0v
0F
0.
#500
1b
18
1v
1F
1.
0^
0]
1[
1Y
b100010 %!
b111100 &!
b110 @
b1101 ?
b1101 ,
b100010 )
0<
1j
b111100 $!
b111101 (!
b100011 '!
b111100 '
0N
0M
1L
#504
0v
0F
0.
#508
1v
1F
1.
1]
0[
1X
b100011 %!
b111101 &!
b100011 )
1>
b111101 $!
b111110 (!
b100001 '!
b111101 '
1N
#512
0v
0F
0.
#516
1v
1F
1.
1^
0]
1[
1Z
0Y
0X
b100001 %!
b111110 &!
b100001 )
0=
b111110 $!
b111111 (!
b100000 '!
b111110 '
0N
1M
#520
0b
08
0v
0F
0.
#524
1v
1F
1.
1\
0[
1X
b100000 %!
b111111 &!
b100000 )
0>
b111111 $!
b1000000 (!
b1100000 '!
b111111 '
1N
#528
0v
0F
0.
#532
1v
1F
1.
1]
1[
1Y
0X
1W
b1100000 %!
b1000000 &!
b1100000 )
b1000000 $!
b1000001 (!
b1100001 '!
b1000000 '
0N
0M
0L
0K
0J
0I
1H
#536
0v
0F
0.
#540
1b
18
1v
1F
1.
0]
0[
0Y
1a
b100 r
b110 q
b1100001 %!
b1000001 &!
b0 @
b110 ?
b110 ,
b1100001 )
1>
0l
1k
0i
1s
b1000001 $!
b1000010 (!
b1100011 '!
b1000001 '
1N
#544
0v
0F
0.
#548
1v
1F
1.
0^
0\
1[
0Z
0W
b1100011 %!
b1000010 &!
b1100011 )
1=
b1000010 $!
b1000011 (!
b1100010 '!
b1000010 '
0N
1M
#552
0v
0F
0.
#556
1v
1F
1.
1^
1]
b1100010 %!
b1000011 &!
b1100010 )
0>
b1000011 $!
b1000100 (!
b1100110 '!
b1000011 '
1N
#560
0b
08
0v
0F
0.
#564
1v
1F
1.
1Z
1Y
1W
b1100110 %!
b1000100 &!
b1100110 )
1<
b1000100 $!
b1000101 (!
b1100111 '!
b1000100 '
0N
0M
1L
#568
0v
0F
0.
#572
1v
1F
1.
0^
0]
1\
1X
b1100111 %!
b1000101 &!
b1100111 )
1>
b1000101 $!
b1000110 (!
b1100101 '!
b1000101 '
1N
#576
0v
0F
0.
#580
1b
18
1v
1F
1.
1^
0a
b11 r
b10 q
0s
b1100101 %!
b1000110 &!
b111 @
b0 ?
1m
b110 o
b100 p
b110 *
b0 ,
b1100101 )
0=
0k
0j
12
b100 n
b100 r
b110 q
b1000110 $!
b1000111 (!
b1100100 '!
b1000110 '
b100 (
0N
1M
0V
0U
1T
b111010 _
#584
0v
0F
0.
#588
1v
1F
1.
0^
0\
0[
0X
0W
b110 6
b1100100 %!
b1000111 &!
b1100100 )
0>
b1000111 $!
b1001000 (!
b1101100 '!
b1000111 '
1N
#592
0v
0F
0.
#596
1v
1F
1.
1^
1]
1\
b110 5
b1101100 %!
b1001000 &!
b1101100 )
b110 +
1~
1;
b1001000 $!
b1001001 (!
b1101101 '!
b1001000 '
0N
0M
0L
1K
#600
0b
08
0v
0F
0.
#604
1v
1F
1.
0\
1[
0Y
1W
b1101101 %!
b1001001 &!
b1101101 )
1>
b1001001 $!
b1001010 (!
b1101111 '!
b1001001 '
1N
#608
0v
0F
0.
#612
1v
1F
1.
0]
0[
0Z
1X
0W
b1101111 %!
b1001010 &!
b1101111 )
1=
b1001010 $!
b1001011 (!
b1101110 '!
b1001010 '
0N
1M
#616
0v
0F
0.
#620
1b
18
1v
1F
1.
1]
1\
1Z
1Y
1W
b1101110 %!
b1001011 &!
b1111 @
b111 ?
0m
b111 ,
b1101110 )
0>
1l
1k
1j
b1001011 $!
b1001100 (!
b1101010 '!
b1001011 '
1N
#624
0v
0F
0.
#628
1v
1F
1.
1[
b1101010 %!
b1001100 &!
b1101010 )
0<
b1001100 $!
b1001101 (!
b1101011 '!
b1001100 '
0N
0M
1L
#632
0v
0F
0.
#636
1v
1F
1.
0\
0Z
0X
0W
b1101011 %!
b1001101 &!
b1101011 )
1>
b1001101 $!
b1001110 (!
b1101001 '!
b1001101 '
1N
#640
0b
08
0v
0F
0.
#644
1v
1F
1.
0^
0]
1\
b1101001 %!
b1001110 &!
b1101001 )
0=
b1001110 $!
b1001111 (!
b1101000 '!
b1001110 '
0N
1M
#648
0v
0F
0.
#652
1v
1F
1.
1^
1]
0Y
1X
1W
b1101000 %!
b1001111 &!
b1101000 )
0>
b1001111 $!
b1010000 (!
b1111000 '!
b1001111 '
1N
#656
0v
0F
0.
#660
1b
18
1v
1F
1.
0[
1Z
1Y
0X
0W
b1111000 %!
b1010000 &!
b1000 @
b1111 ?
b1111 ,
b1111000 )
1:
1i
b1010000 $!
b1010001 (!
b1111001 '!
b1010000 '
0N
0M
0L
0K
1J
#664
0v
0F
0.
#668
1v
1F
1.
0^
1[
0Z
1X
b1111001 %!
b1010001 &!
b1111001 )
1>
b1010001 $!
b1010010 (!
b1111011 '!
b1010001 '
1N
#672
0v
0F
0.
#676
1v
1F
1.
0\
1Z
0Y
b1111011 %!
b1010010 &!
b1111011 )
1=
b1010010 $!
b1010011 (!
b1111010 '!
b1010010 '
0N
1M
#680
0b
08
0v
0F
0.
#684
1v
1F
1.
1^
1Y
1W
b1111010 %!
b1010011 &!
b1111010 )
0>
b1010011 $!
b1010100 (!
b1111110 '!
b1010011 '
1N
#688
0v
0F
0.
#692
1v
1F
1.
0]
0[
0X
b1111110 %!
b1010100 &!
b1111110 )
1<
b1010100 $!
b1010101 (!
b1111111 '!
b1010100 '
0N
0M
1L
#696
0v
0F
0.
#700
1b
18
1v
1F
1.
1\
1[
0Z
0Y
1X
0W
1a
b101 r
b111 q
b1111111 %!
b1010101 &!
b11110 @
b1000 ?
b1000 ,
b1111111 )
1>
0l
0k
0j
b1010101 $!
b1010110 (!
b1111101 '!
b1010101 '
1N
#704
0v
0F
0.
#708
1v
1F
1.
1]
0X
1W
b1111101 %!
b1010110 &!
b1111101 )
0=
b1010110 $!
b1010111 (!
b1111100 '!
b1010110 '
0N
1M
#712
0v
0F
0.
#716
1v
1F
1.
0]
1Z
1Y
1X
b1111100 %!
b1010111 &!
b1111100 )
0>
b1010111 $!
b1011000 (!
b1110100 '!
b1010111 '
1N
#720
0b
08
0v
0F
0.
#724
1v
1F
1.
1]
0\
0Y
0W
b1110100 %!
b1011000 &!
b1110100 )
0;
b1011000 $!
b1011001 (!
b1110101 '!
b1011000 '
0N
0M
0L
1K
#728
0v
0F
0.
#732
1v
1F
1.
0]
1\
0[
0Z
1Y
1W
b1110101 %!
b1011001 &!
b1110101 )
1>
b1011001 $!
b1011010 (!
b1110111 '!
b1011001 '
1N
#736
0v
0F
0.
#740
1b
18
1v
1F
1.
0^
1]
1[
0Y
0a
b100 r
b110 q
b1110111 %!
b1011010 &!
b10101 @
b11110 ?
b111 o
b101 p
b111 *
b11110 ,
b1110111 )
1=
1k
1j
1h
14
b101 n
b101 r
b111 q
b1011010 $!
b1011011 (!
b1110110 '!
b1011010 '
b101 (
0N
1M
1V
b1001001 _
#744
0v
0F
0.
#748
1v
1F
1.
0]
0\
1Z
b111 6
b1110110 %!
b1011011 &!
b1110110 )
0>
b1011011 $!
b1011100 (!
b1110010 '!
b1011011 '
1N
#752
0v
0F
0.
#756
1v
1F
1.
1^
1\
0[
1Y
b111 5
b1110010 %!
b1011100 &!
b1110010 )
b111 +
1"!
0<
b1011100 $!
b1011101 (!
b1110011 '!
b1011100 '
0N
0M
1L
#760
0b
08
0v
0F
0.
#764
1v
1F
1.
0^
0\
1[
0Z
b1110011 %!
b1011101 &!
b1110011 )
1>
b1011101 $!
b1011110 (!
b1110001 '!
b1011101 '
1N
#768
0v
0F
0.
#772
1v
1F
1.
1^
1\
0[
1Z
b1110001 %!
b1011110 &!
b1110001 )
0=
b1011110 $!
b1011111 (!
b1110000 '!
b1011110 '
0N
1M
#776
0v
0F
0.
#780
1b
18
1v
1F
1.
1]
0Z
0Y
0W
b1110000 %!
b1011111 &!
b10001 @
b10101 ?
b10101 ,
b1110000 )
0>
1l
0k
0i
b1011111 $!
b1100000 (!
b1010000 '!
b1011111 '
1N
#784
0v
0F
0.
#788
1v
1F
1.
1Z
0X
1W
b1010000 %!
b1100000 &!
b1010000 )
b1100000 $!
b1100001 (!
b1010001 '!
b1100000 '
0N
0M
0L
0K
0J
1I
#792
0v
0F
0.
#796
1v
1F
1.
0]
0\
1[
1X
0W
b1010001 %!
b1100001 &!
b1010001 )
1>
b1100001 $!
b1100010 (!
b1010011 '!
b1100001 '
1N
#800
0b
08
0v
0F
0.
#804
1v
1F
1.
1\
0[
1Y
0X
b1010011 %!
b1100010 &!
b1010011 )
1=
b1100010 $!
b1100011 (!
b1010010 '!
b1100010 '
0N
1M
#808
0v
0F
0.
#812
1v
1F
1.
0^
1]
0\
1[
0Y
1X
1W
b1010010 %!
b1100011 &!
b1010010 )
0>
b1100011 $!
b1100100 (!
b1010110 '!
b1100011 '
1N
#816
0v
0F
0.
#820
1b
18
1v
1F
1.
0Z
1Y
1a
b110 r
b101 q
b1010110 %!
b1100100 &!
b10010 @
b10001 ?
b10001 ,
b1010110 )
1<
0j
b1100100 $!
b1100101 (!
b1010111 '!
b1100100 '
0N
0M
1L
#824
0v
0F
0.
#828
1v
1F
1.
b1010111 %!
b1100101 &!
b1010111 )
1>
b1100101 $!
b1100110 (!
b1010101 '!
b1100101 '
1N
#832
0v
0F
0.
#836
1v
1F
1.
b1010101 %!
b1100110 &!
b1010101 )
0=
b1100110 $!
b1100111 (!
b1010100 '!
b1100110 '
0N
1M
#840
0b
08
0v
0F
0.
#844
1v
1F
1.
b1010100 %!
b1100111 &!
b1010100 )
0>
b1100111 $!
b1101000 (!
b1011100 '!
b1100111 '
1N
#848
0v
0F
0.
#852
1v
1F
1.
b1011100 %!
b1101000 &!
b1011100 )
1;
b1101000 $!
b1101001 (!
b1011101 '!
b1101000 '
0N
0M
0L
1K
#856
0v
0F
0.
#860
1b
18
1v
1F
1.
0a
b101 r
b111 q
b1011101 %!
b1101001 &!
b11100 @
b10010 ?
b101 o
b110 p
b101 *
b10010 ,
b1011101 )
1>
0l
1k
03
b110 n
b110 r
b101 q
b1101001 $!
b1101010 (!
b1011111 '!
b1101001 '
b110 (
1N
0V
1U
b1101010 _
#864
0v
0F
0.
#868
1v
1F
1.
b101 6
b1011111 %!
b1101010 &!
b1011111 )
1=
b1101010 $!
b1101011 (!
b1011110 '!
b1101010 '
0N
1M
#872
0v
0F
0.
#876
1v
1F
1.
b101 5
b1011110 %!
b1101011 &!
b1011110 )
b101 +
0!!
0>
b1101011 $!
b1101100 (!
b1011010 '!
b1101011 '
1N
#880
0b
08
0v
0F
0.
#884
1v
1F
1.
b1011010 %!
b1101100 &!
b1011010 )
0<
b1101100 $!
b1101101 (!
b1011011 '!
b1101100 '
0N
0M
1L
#888
0v
0F
0.
#892
1v
1F
1.
b1011011 %!
b1101101 &!
b1011011 )
1>
b1101101 $!
b1101110 (!
b1011001 '!
b1101101 '
1N
#896
0v
0F
0.
#900
1b
18
1v
1F
1.
b1011001 %!
b1101110 &!
b11011 @
b11100 ?
b11100 ,
b1011001 )
0=
0k
1j
1i
b1101110 $!
b1101111 (!
b1011000 '!
b1101110 '
0N
1M
#904
0v
0F
0.
#908
1v
1F
1.
b1011000 %!
b1101111 &!
b1011000 )
0>
b1101111 $!
b1110000 (!
b1001000 '!
b1101111 '
1N
#912
0v
0F
0.
#916
1v
1F
1.
b1001000 %!
b1110000 &!
b1001000 )
0:
b1110000 $!
b1110001 (!
b1001001 '!
b1110000 '
0N
0M
0L
0K
1J
#920
0b
08
0v
0F
0.
#924
1v
1F
1.
b1001001 %!
b1110001 &!
b1001001 )
1>
b1110001 $!
b1110010 (!
b1001011 '!
b1110001 '
1N
#928
0v
0F
0.
#932
1v
1F
1.
b1001011 %!
b1110010 &!
b1001011 )
1=
b1110010 $!
b1110011 (!
b1001010 '!
b1110010 '
0N
1M
#936
0v
0F
0.
#940
1b
18
1v
1F
1.
1a
b111 r
b100 q
b1001010 %!
b1110011 &!
b1011 @
b11011 ?
b11011 ,
b1001010 )
0>
1l
1k
0j
b1110011 $!
b1110100 (!
b1001110 '!
b1110011 '
1N
